Package	Version	OMICS_ID	Suitable for OMICtools publication	Comment
swissknife	1.75		No	Not really new in Debian but recently taken over into team maintenance
bali-phy	3.0.2	OMICS_03734	Yes	
jheatchart	0.6		Yes	
libjbzip2-java	0.9.1		No	Not really new in Debian but recently taken over into team maintenance
r-bioc-impute	1.52.0		Yes	
r-bioc-pcamethods	1.70.0	OMICS_14344	Yes	
r-cran-bigmemory	4.5.33		Yes	
r-cran-bigmemory.sri	0.1.3		No	Dependency of r-cran-bigmemory, no real interest
r-cran-fauxpas	0.2.0		No	GNU R HTTP error helpers
r-cran-gee	4.13-19		Yes	
r-cran-ggsci	2.8	OMICS_19271	Yes	
r-cran-mockr	0.1		No	Related to R packages development
r-cran-permute	0.9-4	OMICS_21683	No	Not really new in Debian but recently renamed from pvclust to r-cran-pvclust
r-cran-prettyr	2.2		Yes	
r-cran-pvclust	2.0-0	OMICS_19442	No	Not really new in Debian but recently renamed from pvclust to r-cran-pvclust
r-cran-rmarkdown	1.8		Yes	
r-cran-rwave	2.4-8		?	
r-cran-snowfall	1.84-6.1		Yes	
r-cran-waveslim	1.7.5		?	
r-cran-wavethresh	4.6.8		?	
r-cran-webutils	0.6		No	GNU R utility functions for developing web applications
simpleitk	1.0.1	OMICS_24659	Yes	
